Twitter Mining
…
The problem is one of the users use many more emojis than the other. So we need to calculate total emoji use count per user, to calculate a percentage of emoji used per user.

# which emojis do users use the most?
original_tweet_emojis %>%
  filter(!is.na(description)) %>%
  group_by(screen_name, code) %>%
  summarise(n = n()) %>%
  mutate(total = sum(n),
         percent = n/total) %>%
  arrange(-percent)

## `summarise()` regrouping output by 'screen_name' (override with `.groups` argument)

## # A tibble: 586 x 5
## # Groups:   screen_name [2]
##    screen_name code[,1]     n total percent
##    <chr>       <chr>    <int> <int>   <dbl>
##  1 rihanna               35   419  0.0835
##  2 rihanna               24   419  0.0573
##  3 rihanna               24   419  0.0573
##  4 katyperry            251  4420  0.0568
##  5 rihanna                20   419  0.0477
##  6 katyperry            174  4420  0.0394
##  7 rihanna               15   419  0.0358
##  8 rihanna               14   419  0.0334
##  9 katyperry            147  4420  0.0333
## 10 katyperry            140  4420  0.0317
## #  with 576 more rows
…
We start by tokenizing our tweets.

# tokenize original tweets
tweet_emojis_tokenized <- original_tweet_emojis %>%
  unnest_tokens(word, text)

Then we can calculate what words co-ocurr with what emojis by counting symbol and word by user.

# most common words with emojis
tweet_emojis_tokenized %>%
  count(screen_name, code, word) %>%
  arrange(-n)

## # A tibble: 53,345 x 4
##    screen_name code[,1] word      n
##    <chr>       <chr>    <chr> <int>
##  1 katyperry          https   191
##  2 katyperry          t.co    191
##  3 katyperry          https   185
##  4 katyperry          t.co    185
##  5 katyperry          you     172
##  6 katyperry          https   171
##  7 katyperry          t.co    171
##  8 katyperry          https   132
##  9 katyperry          t.co    132
## 10 katyperry          the     131
## #  with 53,335 more rows
…
# filter our any words that are in our list of tokens to remove
tweets_tokenized_clean <- tweet_emojis_tokenized %>%
  filter(word %notin% to_remove)

7.2 Counting Collocations

With our clean data set, we can count words that co-ocurr with emojis.

# most common words with emojis
tweets_tokenized_clean %>%
  count(screen_name, code, word) %>%
  arrange(-n) 

## # A tibble: 40,818 x 4
##    screen_name code[,1] word               n
##    <chr>       <chr>    <chr>          <int>
##  1 katyperry          americanidol      64
##  2 katyperry          americanidol      55
##  3 katyperry           americanidol      47
##  4 katyperry          love              46
##  5 katyperry          witnessthetour    44
##  6 katyperry          witness           40
##  7 katyperry          americanidol      36
##  8 katyperry          witnessthetour    36
##  9 katyperry          hey               33
## 10 katyperry          now               31
## #  with 40,808 more rows
…
